{
    "Cisco-IOS-XR-ifmgr-cfg:interface-configurations": {
        "interface-configuration": [
            {
                "Cisco-IOS-XR-ipv4-io-cfg:ipv4-network": {
                    "addresses": {
                        "primary": {
                            "address": "4.4.4.4",
                            "netmask": "255.255.255.255"
                        }
                    }
                },
                "active": "act",
                "interface-name": "Loopback0",
                "interface-virtual": [
                    null
                ]
            },
            {
                "Cisco-IOS-XR-ipv4-io-cfg:ipv4-network": {
                    "addresses": {
                        "dhcp": [
                            null
                        ]
                    }
                },
                "active": "act",
                "interface-name": "MgmtEth0/RP0/CPU0/0"
            },
            {
                "Cisco-IOS-XR-ipv4-io-cfg:ipv4-network": {
                    "addresses": {
                        "primary": {
                            "address": "10.1.1.4",
                            "netmask": "255.255.255.0"
                        }
                    }
                },
                "active": "act",
                "interface-name": "GigabitEthernet0/0/0/0"
            },
            {
                "Cisco-IOS-XR-ipv4-io-cfg:ipv4-network": {
                    "addresses": {
                        "primary": {
                            "address": "12.1.1.2",
                            "netmask": "255.255.255.0"
                        }
                    }
                },
                "active": "act",
                "interface-name": "GigabitEthernet0/0/0/1"
            },
            {
                "Cisco-IOS-XR-ipv4-io-cfg:ipv4-network": {
                    "addresses": {
                        "primary": {
                            "address": "15.1.1.2",
                            "netmask": "255.255.255.0"
                        }
                    }
                },
                "active": "act",
                "interface-name": "GigabitEthernet0/0/0/2"
            },
            {
                "Cisco-IOS-XR-ipv4-io-cfg:ipv4-network": {
                    "addresses": {
                        "primary": {
                            "address": "18.1.1.1",
                            "netmask": "255.255.255.0"
                        }
                    }
                },
                "active": "act",
                "interface-name": "GigabitEthernet0/0/0/3"
            }
        ]
    },
    "Cisco-IOS-XR-ip-static-cfg:router-static": {
        "default-vrf": {
            "address-family": {
                "vrfipv4": {
                    "vrf-unicast": {
                        "vrf-prefixes": {
                            "vrf-prefix": [
                                {
                                    "prefix": "0.0.0.0",
                                    "prefix-length": 0,
                                    "vrf-route": {
                                        "vrf-next-hop-table": {
                                            "vrf-next-hop-interface-name-next-hop-address": [
                                                {
                                                    "interface-name": "MgmtEth0/RP0/CPU0/0",
                                                    "next-hop-address": "10.0.2.2"
                                                }
                                            ]
                                        }
                                    }
                                }
                            ]
                        }
                    }
                }
            }
        }
    },
    "Cisco-IOS-XR-ipv4-bgp-cfg:bgp": {
        "instance": [
            {
                "instance-as": [
                    {
                        "as": 0,
                        "four-byte-as": [
                            {
                                "as": 65440,
                                "bgp-running": [
                                    null
                                ],
                                "default-vrf": {
                                    "bgp-entity": {
                                        "neighbors": {
                                            "neighbor": [
                                                {
                                                    "neighbor-address": "12.1.1.1",
                                                    "neighbor-afs": {
                                                        "neighbor-af": [
                                                            {
                                                                "activate": [
                                                                    null
                                                                ],
                                                                "af-name": "ipv4-unicast",
                                                                "next-hop-self": true,
                                                                "route-policy-in": "pass",
                                                                "route-policy-out": "pass"
                                                            }
                                                        ]
                                                    },
                                                    "remote-as": {
                                                        "as-xx": 0,
                                                        "as-yy": 65400
                                                    }
                                                },
                                                {
                                                    "neighbor-address": "15.1.1.1",
                                                    "neighbor-afs": {
                                                        "neighbor-af": [
                                                            {
                                                                "activate": [
                                                                    null
                                                                ],
                                                                "af-name": "ipv4-unicast",
                                                                "next-hop-self": true,
                                                                "route-policy-in": "pass",
                                                                "route-policy-out": "pass"
                                                            }
                                                        ]
                                                    },
                                                    "remote-as": {
                                                        "as-xx": 0,
                                                        "as-yy": 65430
                                                    }
                                                },
                                                {
                                                    "neighbor-address": "18.1.1.2",
                                                    "neighbor-afs": {
                                                        "neighbor-af": [
                                                            {
                                                                "activate": [
                                                                    null
                                                                ],
                                                                "af-name": "ipv4-unicast",
                                                                "next-hop-self": true,
                                                                "route-policy-in": "pass",
                                                                "route-policy-out": "pass"
                                                            }
                                                        ]
                                                    },
                                                    "remote-as": {
                                                        "as-xx": 0,
                                                        "as-yy": 65450
                                                    }
                                                }
                                            ]
                                        }
                                    },
                                    "global": {
                                        "global-afs": {
                                            "global-af": [
                                                {
                                                    "af-name": "ipv4-unicast",
                                                    "enable": [
                                                        null
                                                    ],
                                                    "sourced-networks": {
                                                        "sourced-network": [
                                                            {
                                                                "network-addr": "4.4.4.4",
                                                                "network-prefix": 32
                                                            },
                                                            {
                                                                "network-addr": "12.1.1.0",
                                                                "network-prefix": 24
                                                            },
                                                            {
                                                                "network-addr": "15.1.1.0",
                                                                "network-prefix": 24
                                                            },
                                                            {
                                                                "network-addr": "18.1.1.0",
                                                                "network-prefix": 24
                                                            }
                                                        ]
                                                    }
                                                }
                                            ]
                                        },
                                        "router-id": "4.4.4.4"
                                    }
                                }
                            }
                        ]
                    }
                ],
                "instance-name": "default"
            }
        ]
    },
    "Cisco-IOS-XR-policy-repository-cfg:routing-policy": {
        "route-policies": {
            "route-policy": [
                {
                    "route-policy-name": "pass",
                    "rpl-route-policy": "route-policy pass\n  pass\nend-policy\n"
                }
            ]
        }
    }
}
